[
  {
    "numeroCompteur": "49901506",
    "idUser": "foster.solomon@smartreleve.io",
    "dateDebut": "Mon Feb 13 2017 10:31:53 GMT+0100",
    "dateFin": ""
  },
  {
    "numeroCompteur": "28322742",
    "idUser": "roslyn.lane@smartreleve.me",
    "dateDebut": "Mon Feb 13 2017 10:31:53 GMT+0100",
    "dateFin": ""
  },
  {
    "numeroCompteur": "45479410",
    "idUser": "bette.palmer@smartreleve.biz",
    "dateDebut": "Mon Feb 13 2017 10:31:53 GMT+0100",
    "dateFin": ""
  },
  {
    "numeroCompteur": "45540863",
    "idUser": "heath.cantu@smartreleve.org",
    "dateDebut": "Mon Feb 13 2017 10:31:53 GMT+0100",
    "dateFin": ""
  },
  {
    "numeroCompteur": "40576438",
    "idUser": "glass.thompson@smartreleve.us",
    "dateDebut": "Mon Feb 13 2017 10:31:53 GMT+0100",
    "dateFin": ""
  },
  {
    "numeroCompteur": "37792769",
    "idUser": "glass.thompson@smartreleve.us",
    "dateDebut": "Mon Feb 13 2017 10:31:53 GMT+0100",
    "dateFin": ""
  },
  {
    "numeroCompteur": "6305324",
    "idUser": "glass.thompson@smartreleve.us",
    "dateDebut": "Mon Feb 13 2017 10:31:53 GMT+0100",
    "dateFin": ""
  },
  {
    "numeroCompteur": "47068261",
    "idUser": "simmons.keller@smartreleve.co.uk",
    "dateDebut": "Mon Feb 13 2017 10:31:53 GMT+0100",
    "dateFin": "Mon Feb 13 2017 10:31:53 GMT+0100"
  },
  {
    "numeroCompteur": "2863454",
    "idUser": "lou.banks@smartreleve.info",
    "dateDebut": "Mon Feb 13 2017 10:31:53 GMT+0100",
    "dateFin": ""
  },
  {
    "numeroCompteur": "18338616",
    "idUser": "rae.rice@smartreleve.com",
    "dateDebut": "Mon Feb 13 2017 10:31:53 GMT+0100",
    "dateFin": ""
  },
  {
    "numeroCompteur": "7441916",
    "idUser": "adkins.dejesus@smartreleve.biz",
    "dateDebut": "Mon Feb 13 2017 10:31:53 GMT+0100",
    "dateFin": ""
  },
  {
    "numeroCompteur": "'27678024'",
    "idUser": "elizabeth.forbes@smartreleve.net",
    "dateDebut": "Mon Feb 13 2017 10:31:53 GMT+0100",
    "dateFin": "Mon Feb 13 2017 10:31:53 GMT+0100"
  },
  {
    "numeroCompteur": "'2197065'",
    "idUser": "trina.glass@smartreleve.com",
    "dateDebut": "Mon Feb 13 2017 10:31:53 GMT+0100",
    "dateFin": "Mon Feb 13 2017 10:31:53 GMT+0100"
  },
  {
    "numeroCompteur": "11721583",
    "idUser": "adkins.dejesus@smartreleve.biz",
    "dateDebut": "Mon Feb 13 2017 10:31:53 GMT+0100",
    "dateFin": ""
  },
  {
    "numeroCompteur": "'45988338'",
    "idUser": "torres.dawson@smartreleve.org",
    "dateDebut": "Mon Feb 13 2017 10:31:53 GMT+0100",
    "dateFin": "Mon Feb 13 2017 10:31:53 GMT+0100"
  },
  {
    "numeroCompteur": "28022735",
    "idUser": "adkins.dejesus@smartreleve.biz",
    "dateDebut": "Mon Feb 13 2017 10:31:53 GMT+0100",
    "dateFin": ""
  },
  {
    "numeroCompteur": "'16012710'",
    "idUser": "petra.crosby@smartreleve.co.uk",
    "dateDebut": "Mon Feb 13 2017 10:31:53 GMT+0100",
    "dateFin": "Mon Feb 13 2017 10:31:53 GMT+0100"
  },
  {
    "numeroCompteur": "'25521196'",
    "idUser": "hallie.kidd@smartreleve.me",
    "dateDebut": "Mon Feb 13 2017 10:31:53 GMT+0100",
    "dateFin": "Mon Feb 13 2017 10:31:53 GMT+0100"
  },
  {
    "numeroCompteur": "'43482711'",
    "idUser": "mays.bush@smartreleve.org",
    "dateDebut": "Mon Feb 13 2017 10:31:53 GMT+0100",
    "dateFin": "Mon Feb 13 2017 10:31:53 GMT+0100"
  },
  {
    "numeroCompteur": "'38501344'",
    "idUser": "adriana.turner@smartreleve.ca",
    "dateDebut": "Mon Feb 13 2017 10:31:53 GMT+0100",
    "dateFin": "Mon Feb 13 2017 10:31:53 GMT+0100"
  },
  {
    "numeroCompteur": "'26291335'",
    "idUser": "trina.glass@smartreleve.com",
    "dateDebut": "Mon Feb 13 2017 10:31:53 GMT+0100",
    "dateFin": "Mon Feb 13 2017 10:31:53 GMT+0100"
  },
  {
    "numeroCompteur": "'36803807'",
    "idUser": "patterson.stephens@smartreleve.us",
    "dateDebut": "Mon Feb 13 2017 10:31:53 GMT+0100",
    "dateFin": "Mon Feb 13 2017 10:31:53 GMT+0100"
  },
  {
    "numeroCompteur": "'28460882'",
    "idUser": "jarvis.hicks@smartreleve.net",
    "dateDebut": "Mon Feb 13 2017 10:31:53 GMT+0100",
    "dateFin": "Mon Feb 13 2017 10:31:53 GMT+0100"
  },
  {
    "numeroCompteur": "'40513749'",
    "idUser": "kelsey.mcdaniel@smartreleve.ca",
    "dateDebut": "Mon Feb 13 2017 10:31:53 GMT+0100",
    "dateFin": "Mon Feb 13 2017 10:31:53 GMT+0100"
  },
  {
    "numeroCompteur": "'23843368'",
    "idUser": "mayra.stark@smartreleve.ca",
    "dateDebut": "Mon Feb 13 2017 10:31:53 GMT+0100",
    "dateFin": "Mon Feb 13 2017 10:31:53 GMT+0100"
  },
  {
    "numeroCompteur": "'30375113'",
    "idUser": "hammond.buchanan@smartreleve.io",
    "dateDebut": "Mon Feb 13 2017 10:31:53 GMT+0100",
    "dateFin": "Mon Feb 13 2017 10:31:53 GMT+0100"
  },
  {
    "numeroCompteur": "'15150301'",
    "idUser": "shanna.alexander@smartreleve.name",
    "dateDebut": "Mon Feb 13 2017 10:31:53 GMT+0100",
    "dateFin": "Mon Feb 13 2017 10:31:53 GMT+0100"
  },
  {
    "numeroCompteur": "'40123984'",
    "idUser": "bruce.heath@smartreleve.io",
    "dateDebut": "Mon Feb 13 2017 10:31:53 GMT+0100",
    "dateFin": "Mon Feb 13 2017 10:31:53 GMT+0100"
  },
  {
    "numeroCompteur": "'48529576'",
    "idUser": "hendrix.rosales@smartreleve.info",
    "dateDebut": "Mon Feb 13 2017 10:31:53 GMT+0100",
    "dateFin": "Mon Feb 13 2017 10:31:53 GMT+0100"
  },
  {
    "numeroCompteur": "'49851948'",
    "idUser": "patterson.stephens@smartreleve.us",
    "dateDebut": "Mon Feb 13 2017 10:31:53 GMT+0100",
    "dateFin": "Mon Feb 13 2017 10:31:53 GMT+0100"
  },
  {
    "numeroCompteur": "'40667439'",
    "idUser": "adriana.turner@smartreleve.ca",
    "dateDebut": "Mon Feb 13 2017 10:31:53 GMT+0100",
    "dateFin": "Mon Feb 13 2017 10:31:53 GMT+0100"
  },
  {
    "numeroCompteur": "'38225143'",
    "idUser": "brittany.salas@smartreleve.io",
    "dateDebut": "Mon Feb 13 2017 10:31:53 GMT+0100",
    "dateFin": "Mon Feb 13 2017 10:31:53 GMT+0100"
  },
  {
    "numeroCompteur": "'3438115'",
    "idUser": "elizabeth.forbes@smartreleve.net",
    "dateDebut": "Mon Feb 13 2017 10:31:53 GMT+0100",
    "dateFin": "Mon Feb 13 2017 10:31:53 GMT+0100"
  },
  {
    "numeroCompteur": "'18843000'",
    "idUser": "woodard.wright@smartreleve.io",
    "dateDebut": "Mon Feb 13 2017 10:31:53 GMT+0100",
    "dateFin": "Mon Feb 13 2017 10:31:53 GMT+0100"
  },
  {
    "numeroCompteur": "44410079",
    "idUser": "lou.banks@smartreleve.info",
    "dateDebut": "Mon Feb 13 2017 10:31:53 GMT+0100",
    "dateFin": "Mon Feb 13 2017 10:31:53 GMT+0100"
  },
  {
    "numeroCompteur": "'5282011'",
    "idUser": "shanna.alexander@smartreleve.name",
    "dateDebut": "Mon Feb 13 2017 10:31:53 GMT+0100",
    "dateFin": "Mon Feb 13 2017 10:31:53 GMT+0100"
  },
  {
    "numeroCompteur": "'21623960'",
    "idUser": "ada.cobb@smartreleve.biz",
    "dateDebut": "Mon Feb 13 2017 10:31:53 GMT+0100",
    "dateFin": "Mon Feb 13 2017 10:31:53 GMT+0100"
  },
  {
    "numeroCompteur": "'1843366'",
    "idUser": "mayra.stark@smartreleve.ca",
    "dateDebut": "Mon Feb 13 2017 10:31:53 GMT+0100",
    "dateFin": "Mon Feb 13 2017 10:31:53 GMT+0100"
  },
  {
    "numeroCompteur": "'10711090'",
    "idUser": "hammond.buchanan@smartreleve.io",
    "dateDebut": "Mon Feb 13 2017 10:31:53 GMT+0100",
    "dateFin": "Mon Feb 13 2017 10:31:53 GMT+0100"
  },
  {
    "numeroCompteur": "'10767111'",
    "idUser": "watson.moon@smartreleve.info",
    "dateDebut": "Mon Feb 13 2017 10:31:53 GMT+0100",
    "dateFin": "Mon Feb 13 2017 10:31:53 GMT+0100"
  },
  {
    "numeroCompteur": "'20104006'",
    "idUser": "tucker.johnson@smartreleve.biz",
    "dateDebut": "Mon Feb 13 2017 10:31:53 GMT+0100",
    "dateFin": "Mon Feb 13 2017 10:31:53 GMT+0100"
  },
  {
    "numeroCompteur": "18338616",
    "idUser": "rae.rice@smartreleve.com",
    "dateDebut": "Mon Feb 13 2017 10:31:53 GMT+0100",
    "dateFin": ""
  },
  {
    "numeroCompteur": "17450389",
    "idUser": "bette.palmer@smartreleve.biz",
    "dateDebut": "Mon Feb 13 2017 10:31:53 GMT+0100",
    "dateFin": ""
  },
  {
    "numeroCompteur": "'33414189'",
    "idUser": "ada.cobb@smartreleve.biz",
    "dateDebut": "Mon Feb 13 2017 10:31:53 GMT+0100",
    "dateFin": "Mon Feb 13 2017 10:31:53 GMT+0100"
  },
  {
    "numeroCompteur": "'8306357'",
    "idUser": "sykes.flynn@smartreleve.co.uk",
    "dateDebut": "Mon Feb 13 2017 10:31:53 GMT+0100",
    "dateFin": "Mon Feb 13 2017 10:31:53 GMT+0100"
  },
  {
    "numeroCompteur": "'48249018'",
    "idUser": "long.jefferson@smartreleve.name",
    "dateDebut": "Mon Feb 13 2017 10:31:53 GMT+0100",
    "dateFin": "Mon Feb 13 2017 10:31:53 GMT+0100"
  },
  {
    "numeroCompteur": "'4358396'",
    "idUser": "nolan.shaw@smartreleve.ca",
    "dateDebut": "Mon Feb 13 2017 10:31:53 GMT+0100",
    "dateFin": "Mon Feb 13 2017 10:31:53 GMT+0100"
  },
  {
    "numeroCompteur": "'11724045'",
    "idUser": "watson.moon@smartreleve.info",
    "dateDebut": "Mon Feb 13 2017 10:31:53 GMT+0100",
    "dateFin": "Mon Feb 13 2017 10:31:53 GMT+0100"
  },
  {
    "numeroCompteur": "'46261394'",
    "idUser": "hallie.kidd@smartreleve.me",
    "dateDebut": "Mon Feb 13 2017 10:31:53 GMT+0100",
    "dateFin": "Mon Feb 13 2017 10:31:53 GMT+0100"
  },
  {
    "numeroCompteur": "29972852",
    "idUser": "adkins.dejesus@smartreleve.biz",
    "dateDebut": "Mon Feb 13 2017 10:31:53 GMT+0100",
    "dateFin": "Mon Feb 13 2017 10:31:53 GMT+0100"
  },
  {
    "numeroCompteur": "33929370",
    "idUser": "tania.carter@smartreleve.biz",
    "dateDebut": "Mon Feb 13 2017 10:31:53 GMT+0100",
    "dateFin": "Mon Feb 13 2017 10:31:53 GMT+0100"
  },
  {
    "numeroCompteur": "'5379596'",
    "idUser": "petra.crosby@smartreleve.co.uk",
    "dateDebut": "Mon Feb 13 2017 10:31:53 GMT+0100",
    "dateFin": "Mon Feb 13 2017 10:31:53 GMT+0100"
  },
  {
    "numeroCompteur": "'45470772'",
    "idUser": "clarissa.burch@smartreleve.net",
    "dateDebut": "Mon Feb 13 2017 10:31:53 GMT+0100",
    "dateFin": "Mon Feb 13 2017 10:31:53 GMT+0100"
  },
  {
    "numeroCompteur": "'34754850'",
    "idUser": "watson.moon@smartreleve.info",
    "dateDebut": "Mon Feb 13 2017 10:31:53 GMT+0100",
    "dateFin": "Mon Feb 13 2017 10:31:53 GMT+0100"
  },
  {
    "numeroCompteur": "'37916655'",
    "idUser": "ilene.hutchinson@smartreleve.net",
    "dateDebut": "Mon Feb 13 2017 10:31:53 GMT+0100",
    "dateFin": "Mon Feb 13 2017 10:31:53 GMT+0100"
  },
  {
    "numeroCompteur": "'32790745'",
    "idUser": "kelsey.mcdaniel@smartreleve.ca",
    "dateDebut": "Mon Feb 13 2017 10:31:53 GMT+0100",
    "dateFin": "Mon Feb 13 2017 10:31:53 GMT+0100"
  },
  {
    "numeroCompteur": "'37423086'",
    "idUser": "branch.cruz@smartreleve.biz",
    "dateDebut": "Mon Feb 13 2017 10:31:53 GMT+0100",
    "dateFin": "Mon Feb 13 2017 10:31:53 GMT+0100"
  },
  {
    "numeroCompteur": "47979720",
    "idUser": "adkins.dejesus@smartreleve.biz",
    "dateDebut": "Mon Feb 13 2017 10:31:53 GMT+0100",
    "dateFin": "Mon Feb 13 2017 10:31:53 GMT+0100"
  },
  {
    "numeroCompteur": "'37569702'",
    "idUser": "terrell.brady@smartreleve.info",
    "dateDebut": "Mon Feb 13 2017 10:31:53 GMT+0100",
    "dateFin": "Mon Feb 13 2017 10:31:53 GMT+0100"
  },
  {
    "numeroCompteur": "'2663576'",
    "idUser": "kelsey.mcdaniel@smartreleve.ca",
    "dateDebut": "Mon Feb 13 2017 10:31:53 GMT+0100",
    "dateFin": "Mon Feb 13 2017 10:31:53 GMT+0100"
  },
  {
    "numeroCompteur": "'24334532'",
    "idUser": "patterson.stephens@smartreleve.us",
    "dateDebut": "Mon Feb 13 2017 10:31:53 GMT+0100",
    "dateFin": "Mon Feb 13 2017 10:31:53 GMT+0100"
  },
  {
    "numeroCompteur": "'11039842'",
    "idUser": "delia.moses@smartreleve.biz",
    "dateDebut": "Mon Feb 13 2017 10:31:53 GMT+0100",
    "dateFin": "Mon Feb 13 2017 10:31:53 GMT+0100"
  },
  {
    "numeroCompteur": "'462108'",
    "idUser": "watson.moon@smartreleve.info",
    "dateDebut": "Mon Feb 13 2017 10:31:53 GMT+0100",
    "dateFin": "Mon Feb 13 2017 10:31:53 GMT+0100"
  },
  {
    "numeroCompteur": "'31104784'",
    "idUser": "elise.salazar@smartreleve.biz",
    "dateDebut": "Mon Feb 13 2017 10:31:53 GMT+0100",
    "dateFin": "Mon Feb 13 2017 10:31:53 GMT+0100"
  },
  {
    "numeroCompteur": "'21657694'",
    "idUser": "woodard.wright@smartreleve.io",
    "dateDebut": "Mon Feb 13 2017 10:31:53 GMT+0100",
    "dateFin": "Mon Feb 13 2017 10:31:53 GMT+0100"
  },
  {
    "numeroCompteur": "27941975",
    "idUser": "heath.cantu@smartreleve.org",
    "dateDebut": "Mon Feb 13 2017 10:31:53 GMT+0100",
    "dateFin": ""
  },
  {
    "numeroCompteur": "'30348004'",
    "idUser": "hammond.buchanan@smartreleve.io",
    "dateDebut": "Mon Feb 13 2017 10:31:53 GMT+0100",
    "dateFin": "Mon Feb 13 2017 10:31:53 GMT+0100"
  },
  {
    "numeroCompteur": "'20254748'",
    "idUser": "terrell.brady@smartreleve.info",
    "dateDebut": "Mon Feb 13 2017 10:31:53 GMT+0100",
    "dateFin": "Mon Feb 13 2017 10:31:53 GMT+0100"
  },
  {
    "numeroCompteur": "'15249965'",
    "idUser": "bruce.heath@smartreleve.io",
    "dateDebut": "Mon Feb 13 2017 10:31:53 GMT+0100",
    "dateFin": "Mon Feb 13 2017 10:31:53 GMT+0100"
  },
  {
    "numeroCompteur": "'7838366'",
    "idUser": "clarissa.burch@smartreleve.net",
    "dateDebut": "Mon Feb 13 2017 10:31:53 GMT+0100",
    "dateFin": "Mon Feb 13 2017 10:31:53 GMT+0100"
  },
  {
    "numeroCompteur": "'15157031'",
    "idUser": "clarissa.burch@smartreleve.net",
    "dateDebut": "Mon Feb 13 2017 10:31:53 GMT+0100",
    "dateFin": "Mon Feb 13 2017 10:31:53 GMT+0100"
  },
  {
    "numeroCompteur": "'28772226'",
    "idUser": "mays.bush@smartreleve.org",
    "dateDebut": "Mon Feb 13 2017 10:31:53 GMT+0100",
    "dateFin": "Mon Feb 13 2017 10:31:53 GMT+0100"
  },
  {
    "numeroCompteur": "'10130547'",
    "idUser": "whitney.white@smartreleve.name",
    "dateDebut": "Mon Feb 13 2017 10:31:53 GMT+0100",
    "dateFin": "Mon Feb 13 2017 10:31:53 GMT+0100"
  },
  {
    "numeroCompteur": "'21752090'",
    "idUser": "trina.glass@smartreleve.com",
    "dateDebut": "Mon Feb 13 2017 10:31:53 GMT+0100",
    "dateFin": "Mon Feb 13 2017 10:31:53 GMT+0100"
  },
  {
    "numeroCompteur": "'28296563'",
    "idUser": "jarvis.hicks@smartreleve.net",
    "dateDebut": "Mon Feb 13 2017 10:31:53 GMT+0100",
    "dateFin": "Mon Feb 13 2017 10:31:53 GMT+0100"
  },
  {
    "numeroCompteur": "'4854345'",
    "idUser": "adriana.turner@smartreleve.ca",
    "dateDebut": "Mon Feb 13 2017 10:31:53 GMT+0100",
    "dateFin": "Mon Feb 13 2017 10:31:53 GMT+0100"
  },
  {
    "numeroCompteur": "'16399258'",
    "idUser": "mayra.stark@smartreleve.ca",
    "dateDebut": "Mon Feb 13 2017 10:31:53 GMT+0100",
    "dateFin": "Mon Feb 13 2017 10:31:53 GMT+0100"
  },
  {
    "numeroCompteur": "2278020",
    "idUser": "bette.palmer@smartreleve.biz",
    "dateDebut": "Mon Feb 13 2017 10:31:53 GMT+0100",
    "dateFin": ""
  },
  {
    "numeroCompteur": "'3617242'",
    "idUser": "nolan.shaw@smartreleve.ca",
    "dateDebut": "Mon Feb 13 2017 10:31:53 GMT+0100",
    "dateFin": "Mon Feb 13 2017 10:31:53 GMT+0100"
  },
  {
    "numeroCompteur": "'45773584'",
    "idUser": "watson.moon@smartreleve.info",
    "dateDebut": "Mon Feb 13 2017 10:31:53 GMT+0100",
    "dateFin": "Mon Feb 13 2017 10:31:53 GMT+0100"
  },
  {
    "numeroCompteur": "'21584227'",
    "idUser": "hendrix.rosales@smartreleve.info",
    "dateDebut": "Mon Feb 13 2017 10:31:53 GMT+0100",
    "dateFin": "Mon Feb 13 2017 10:31:53 GMT+0100"
  },
  {
    "numeroCompteur": "'26651810'",
    "idUser": "trina.glass@smartreleve.com",
    "dateDebut": "Mon Feb 13 2017 10:31:53 GMT+0100",
    "dateFin": "Mon Feb 13 2017 10:31:53 GMT+0100"
  },
  {
    "numeroCompteur": "'41216368'",
    "idUser": "long.jefferson@smartreleve.name",
    "dateDebut": "Mon Feb 13 2017 10:31:53 GMT+0100",
    "dateFin": "Mon Feb 13 2017 10:31:53 GMT+0100"
  },
  {
    "numeroCompteur": "'28288830'",
    "idUser": "terrell.brady@smartreleve.info",
    "dateDebut": "Mon Feb 13 2017 10:31:53 GMT+0100",
    "dateFin": "Mon Feb 13 2017 10:31:53 GMT+0100"
  },
  {
    "numeroCompteur": "35870045",
    "idUser": "lou.banks@smartreleve.info",
    "dateDebut": "Mon Feb 13 2017 10:31:53 GMT+0100",
    "dateFin": ""
  },
  {
    "numeroCompteur": "'44177442'",
    "idUser": "hendrix.rosales@smartreleve.info",
    "dateDebut": "Mon Feb 13 2017 10:31:53 GMT+0100",
    "dateFin": "Mon Feb 13 2017 10:31:53 GMT+0100"
  },
  {
    "numeroCompteur": "'21378704'",
    "idUser": "terrell.brady@smartreleve.info",
    "dateDebut": "Mon Feb 13 2017 10:31:53 GMT+0100",
    "dateFin": "Mon Feb 13 2017 10:31:53 GMT+0100"
  },
  {
    "numeroCompteur": "'15975069'",
    "idUser": "hallie.kidd@smartreleve.me",
    "dateDebut": "Mon Feb 13 2017 10:31:53 GMT+0100",
    "dateFin": "Mon Feb 13 2017 10:31:53 GMT+0100"
  },
  {
    "numeroCompteur": "'9540518'",
    "idUser": "ilene.hutchinson@smartreleve.net",
    "dateDebut": "Mon Feb 13 2017 10:31:53 GMT+0100",
    "dateFin": "Mon Feb 13 2017 10:31:53 GMT+0100"
  },
  {
    "numeroCompteur": "'3715730'",
    "idUser": "elise.salazar@smartreleve.biz",
    "dateDebut": "Mon Feb 13 2017 10:31:53 GMT+0100",
    "dateFin": "Mon Feb 13 2017 10:31:53 GMT+0100"
  },
  {
    "numeroCompteur": "'26650850'",
    "idUser": "branch.cruz@smartreleve.biz",
    "dateDebut": "Mon Feb 13 2017 10:31:53 GMT+0100",
    "dateFin": "Mon Feb 13 2017 10:31:53 GMT+0100"
  },
  {
    "numeroCompteur": "'49907388'",
    "idUser": "ilene.hutchinson@smartreleve.net",
    "dateDebut": "Mon Feb 13 2017 10:31:53 GMT+0100",
    "dateFin": "Mon Feb 13 2017 10:31:53 GMT+0100"
  },
  {
    "numeroCompteur": "'22528690'",
    "idUser": "herring.graham@smartreleve.net",
    "dateDebut": "Mon Feb 13 2017 10:31:53 GMT+0100",
    "dateFin": "Mon Feb 13 2017 10:31:53 GMT+0100"
  }
]
